[
  {
    "supplies": [
      {
        "value": 50,
        "label": "Interior Paint"
      },
      {
        "value": 1000,
        "label": "Exterior Paint"
      },
      {
        "value": 2222,
        "label": "Interior Stain & Sealers"
      },
      {
        "value": 4545,
        "label": "Exterial Deck Stains"
      },
      {
        "value": 2222,
        "label": "Exterior Siding Stains"
      },
      {
        "value": 4545,
        "label": "Concrete, Garage, & Basement Floor Coatings"
      },
      {
        "value": 4545,
        "label": "Interior Primer"
      },
      {
        "value": 2222,
        "label": "Exterior Primer"
      },
      {
        "value": 4545,
        "label": "Wallpaper"
      }
    ]
  },
  {
    "projects": [
      {
        "value": 12,
        "label": "Accent Wall"
      },
      {
        "value": 123,
        "label": "Cabinets"
      },
      {
        "value": 1234,
        "label": "Doors"
      },
      {
        "value": 12345,
        "label": "Furniture"
      }
    ]
  }
]
